{
  "main.css": "/static/css/main.257b9250.chunk.css",
  "main.js": "/static/js/main.8295eed9.chunk.js",
  "main.js.map": "/static/js/main.8295eed9.chunk.js.map",
  "static/css/1.c9ed8b7b.chunk.css": "/static/css/1.c9ed8b7b.chunk.css",
  "static/js/1.1e3a56ca.chunk.js": "/static/js/1.1e3a56ca.chunk.js",
  "static/js/1.1e3a56ca.chunk.js.map": "/static/js/1.1e3a56ca.chunk.js.map",
  "runtime~main.js": "/static/js/runtime~main.229c360f.js",
  "runtime~main.js.map": "/static/js/runtime~main.229c360f.js.map",
  "static/css/1.c9ed8b7b.chunk.css.map": "/static/css/1.c9ed8b7b.chunk.css.map",
  "static/css/main.257b9250.chunk.css.map": "/static/css/main.257b9250.chunk.css.map",
  "index.html": "/index.html",
  "precache-manifest.6c9204400274902f8ea0995e6b686115.js": "/precache-manifest.6c9204400274902f8ea0995e6b686115.js",
  "service-worker.js": "/service-worker.js"
}